…
Rows: 32769 Columns: 10
── Column specification ────────────────────────────────────────────────────────
Delimiter: ","
dbl (10): ACTION, RESOURCE, MGR_ID, ROLE_ROLLUP_1, ROLE_ROLLUP_2, ROLE_DEPTN...

ℹ Use `spec()` to retrieve the full column specification for this data.
ℹ Specify the column types or set `show_col_types = FALSE` to quiet this message.
Rows: 58921 Columns: 10
── Column specification ────────────────────────────────────────────────────────
Delimiter: ","
dbl (10): id, RESOURCE, MGR_ID, ROLE_ROLLUP_1, ROLE_ROLLUP_2, ROLE_DEPTNAME,...

ℹ Use `spec()` to retrieve the full column specification for this data.
ℹ Specify the column types or set `show_col_types = FALSE` to quiet this message.
# A tibble: 32,769 × 10
   RESOURCE MGR_ID ROLE_ROLLUP_1 ROLE_ROLLUP_2 ROLE_DEPTNAME ROLE_TITLE
      <dbl>  <dbl>         <dbl>         <dbl>         <dbl>      <dbl>
 1    -3.65 -6.28          -2.93         -3.08         -3.16      -3.40
 2    -3.40 -5.62          -2.93         -3.44         -2.17      -3.29
 3    -3.60 -5.40          -2.48         -2.47         -2.50      -2.09
 4    -3.54 -6.34          -2.93         -3.44         -4.27      -2.45
 5    -3.85 -5.59          -2.63         -2.05         -1.29      -2.00
 6    -2.28 -0.949         -2.71         -2.68         -2.12      -2.52
 7    -3.03 -5.84          -2.93         -3.44         -3.98      -2.58
 8    -4.10 -5.51          -2.93         -2.56         -3.26      -2.69
 9    -3.70 -6.00          -2.93         -3.29         -3.07      -2.37
10    -4.00 -5.32          -1.52         -1.51         -2.71      -2.09
# ℹ 32,759 more rows
# ℹ 4 more variables: ROLE_FAMILY_DESC <dbl>, ROLE_FAMILY <dbl>,
#   ROLE_CODE <dbl>, ACTION <fct>
…
